<?xml version="1.0" encoding="utf-8"?>
<!-- Generator: Adobe Illustrator 22.1.0, SVG Export Plug-In . SVG Version: 6.00 Build 0)  -->
<svg version="1.1" id="Layer_1" xmlns="http://www.w3.org/2000/svg" xmlns:xlink="http://www.w3.org/1999/xlink" x="0px" y="0px"
	 viewBox="0 0 710 319" style="enable-background:new 0 0 710 319;" xml:space="preserve">
<g>
	<path d="M68.1,103.1c3.4,1.5,10,3,15.2,3c11.2,0,16.8-5.7,16.8-12.4c0-10.1-10.8-17.7-22.9-25.2c-17.4-11.2-26-20.3-26-32.9
		c0-19,17.2-29.1,41.9-29.1c7,0,19.2,1.6,26.5,2.8v29.3c-1.6,0.7-2.8,1.1-4.2,1.1c-3,0-4.5-1.5-5.5-4.1l-6.7-18.7
		c-3.3-1.5-8-2.5-11.2-2.5c-9,0-14.7,4.4-14.7,12c0,8,6.4,14.2,20.6,22.5c19.1,11.5,27.6,20.3,27.6,34.7c0,17.5-16.3,31.3-42.1,31.3
		c-11.7,0-26-2.5-32.6-4.4V78.8h10.7L68.1,103.1z"/>
	<path d="M165.3,101.8V17.1l-16.5,0.7l-7.4,21.8H132l1.1-31.4h91.6v30.2c-0.9,0.8-2.9,1.5-4.6,1.5c-3,0-4.5-1.8-5.4-4.8l-5.5-17.3
		l-17.8-0.7v86h12.4v4.1c0,3.4-2,5-4.7,5h-47.4v-7.6L165.3,101.8z"/>
	<path d="M229.9,62.4c0-30.6,24.5-55.4,55.7-55.4c28.7,0,51.5,18.9,51.5,52.1c0,31.5-25.3,55.4-56.5,55.4
		C252.9,114.4,229.9,94.5,229.9,62.4z M285.7,105.5c17,0,23.9-16.6,23.9-41.1c0-33.4-12.4-48.5-28-48.5s-24.1,13.8-24.1,40
		C257.4,88.9,269.2,105.5,285.7,105.5L285.7,105.5z"/>
	<path d="M379.8,70.5v32.9h10.6v4c0,3.1-1,4.8-5.1,4.8h-41V105l9.9-2.9V18.3l-9.9-2.9V8.1H394c19.8,0,40.2,6.8,40.2,28.6
		c0,12.2-9.1,21.6-20.1,26.4l24.8,40.2h7.4v3.6c0,3.1-1.2,5.2-5.2,5.2h-27.3l-24.1-41.8h-9.9V70.5z M379.8,61.5
		c2.9,0.1,6.6,0.3,10,0.3c13.5,0,18.1-11.6,18.1-21.8c0-15.7-6.5-24-18.8-24c-2.5,0-6.3,0.3-9.3,0.4L379.8,61.5z"/>
	<path d="M478.9,102.1v-25l-31.5-58.7l-8.7-2.9V8.2H485c2.4,0,4.4,1,4.4,4.6V17h-13.2l23.2,46.6l18.5-45.2l-12.6-2.9V8.2h31.1
		c2.8,0,4.5,1.2,4.5,5.1v3.8h-8.3l-28,56.7v29.6h11.7v4.5c0,2.7-1.4,4.4-4.6,4.4h-45.6V105L478.9,102.1z"/>
	<path d="M625.7,106.6c-9.3,5.1-21.2,8.1-33.5,8.1c-31.8,0-43.4-16.3-43.4-31.6c0-13,7.5-23.4,20.9-30.8c-4.2-5.7-7-11.9-7-19
		c0-16.4,14.7-27.8,34.2-27.8c18.5,0,28.3,8.8,28.3,17.9c0,7.5-5.8,11.2-13.2,11.2h-6.4l-3.7-18.1c-2.1-1.5-5.1-2.1-6.8-2.1
		c-7.5,0-11.4,5.9-11.4,12.4c0,7.2,5.3,13.5,11.7,19.7l41.1,38.4c2.6-4.6,4.2-9.6,4.2-14.6c0-4.5-1.5-8.9-2.9-10.5H623
		c-1.5-2.4-2.9-5.5-2.9-9c0-7.6,5.9-11.2,11.8-11.2c13.2,0,19.5,15,19.5,26.6c0,8.4-2.4,17.4-7.9,25.2l13.1,12.1h7.3v3.7
		c0,3.2-1.3,5-4.3,5h-27.7L625.7,106.6z M578.6,62.8c-3.6,4.2-4.8,9.7-4.8,14.4c0,15.8,10.9,27.1,28.2,27.1c5.6,0,11.6-1.4,16.8-4.1
		L578.6,62.8z"/>
	<path d="M14.2,230.4v-83.7l-10-2.9v-7.3H84v28.4c-1,0.8-2.9,1.6-4.4,1.6c-2.8,0-3.8-1.7-4.7-4.2l-4.7-16.1l-30.5-1.3v42.2h18.5
		l5.7-12.4h6.3v28.8c0,2.1-1,4.8-5,4.8h-2.9l-2.8-11.8H39.8v35.3h15.8v3.8c0,3.4-2,5-4.7,5H4.3v-7.3L14.2,230.4z"/>
	<path d="M89.4,190.6c0-30.6,24.5-55.4,55.7-55.4c28.7,0,51.5,18.9,51.5,52.1c0,31.5-25.3,55.4-56.5,55.4
		C112.4,242.7,89.4,222.7,89.4,190.6z M145.2,233.7c17,0,23.9-16.6,23.9-41.1c0-33.4-12.4-48.5-28-48.5s-24.1,13.8-24.1,40
		C116.9,217.1,128.7,233.7,145.2,233.7L145.2,233.7z"/>
	<path d="M239.3,198.8v32.9h10.6v4c0,3.1-1,4.8-5.1,4.8h-41v-7.3l9.9-2.9v-83.7l-9.9-2.9v-7.3h49.6c19.8,0,40.2,6.8,40.2,28.6
		c0,12.2-9.1,21.6-20.1,26.4l24.8,40.2h7.4v3.6c0,3.1-1.2,5.2-5.2,5.2h-27.3l-24.1-41.8h-9.8V198.8z M239.3,189.8
		c2.9,0.1,6.6,0.3,10,0.3c13.5,0,18.1-11.6,18.1-21.8c0-15.7-6.5-24-18.8-24c-2.5,0-6.3,0.3-9.3,0.4L239.3,189.8z"/>
	<path d="M336.5,230v-84.7L320,146l-7.4,21.8h-9.4l1.1-31.4h91.6v30.2c-0.9,0.8-2.9,1.5-4.6,1.5c-3,0-4.5-1.8-5.4-4.8l-5.5-17.3
		l-17.8-0.7v86H375v4.1c0,3.4-2,5-4.7,5h-47.4V233L336.5,230z"/>
	<path d="M465.8,143.7v-7.3h33.5c3.6,0,4.8,1.7,4.8,4.6v4.2h-11.7l-0.3,49.5c-0.2,37.9-20.9,48.1-43.1,48.1
		c-21.1,0-39.5-9.6-39.5-40.4v-55.8l-11.2-2.9v-7.3h44.8c3,0,4.4,1.5,4.4,4.9v3.9h-11.9v55.9c0,10.5,2,18.6,6.1,23.6
		c3.9,4.9,9.4,7.4,16.2,7.4c11.9,0,21.4-8.5,21.4-27.3v-46.6l-2.1-11.8L465.8,143.7z"/>
	<path d="M595.7,241.2c-11.7,0-17.8-4.7-22.9-12.9l-31.9-49.6c-3.5-5.6-6.9-11.3-9.8-16.7v56.4l1.9,13.5h13.3v4
		c0,3.6-1.4,4.8-4.5,4.8h-33.2v-7.3l12.1-2.9v-81.7l-11.8-5v-7.3h34.9l48.5,74.9V147l-13.5-2.6v-7.9h31.8c2.3,0,3.7,1.1,3.7,3.6v5.3
		H605l-1.7,11.8v84.1L595.7,241.2z"/>
	<path d="M632.6,230.4v-83.7l-10-2.9v-7.3h79.8v27.4c-1,0.8-2.8,1.6-4.4,1.6c-2.7,0-3.8-1.7-4.7-4.2l-4.7-15l-30.5-1.3v39.5h21.3
		l5.8-11.5h6.2v28.3c0,2.1-1.2,4.8-5.3,4.8h-2.6l-2.8-12.3H658v39l29.4-1.4l9.8-17.2c2-3.5,3.9-4.5,6.2-4.5c1.7,0,3.1,0.8,4.2,1.7
		l-5.9,29.4h-79.2v-7.3L632.6,230.4z"/>
</g>
<g>
	<path d="M22.5,274.5h10.1l6.6,16.7c0.7,1.7,1.3,3.4,1.9,5.1l8.7-21.8h8.1c0.8,0,1.2,0.5,1.2,1.2v1.1h-2.7v25.5h3.4v1.1
		c0,0.8-0.4,1.2-1.2,1.2H47.2v-2l3.4-0.8v-15.6c0-1.8,0-4.1,0.1-6.2l-10.2,24.5c-2.3,0-2.8-1.2-3.7-3.7l-6.1-14.9
		c-0.6-1.4-1.3-3.5-1.9-5.5v21.8H32v1.2c0,0.8-0.4,1.2-1.2,1.2h-8.6v-1.8l3.2-0.8l0.4-3.7v-21.1l-3.2-0.8L22.5,274.5z"/>
	<path d="M75.5,300.6c-1.6,3.2-4.4,4.7-6.9,4.7c-3.8,0-5.8-2.7-5.8-5.7c0-1.9,0.9-3.6,1.3-4.4l11-3.5v-3.5c0-2.5-1.5-3.8-3.6-3.8
		c-0.7,0-1.7,0.1-2.3,0.3l-0.4,5H67c-2.3,0-3.2-1-3.2-2.2c0-1.5,1.5-2.9,3.2-3.9c2.3-1.3,5.1-1.9,7.2-1.9c2.2,0,3.6,0.5,4.7,1.3
		c1.4,1.2,2,2.9,2,5.7V302h3c0,0.3,0.1,0.7,0.1,1c0,1.2-0.9,1.4-1.6,1.4l-5.5,0.5L75.5,300.6z M71.7,294.8c-2.6,0.7-3.5,2.3-3.5,4
		c0,1.6,1.1,3,2.9,3c1.9,0,3.1-1.8,3.5-3.1c0.4-1.1,0.5-2.6,0.5-3.4v-1.5L71.7,294.8z"/>
	<path d="M83.9,282.6h12.5v1.2c0,0.8-0.4,1.2-1.2,1.2h-2.7l3.6,9.1c0.7,1.7,1.5,4,2,6.1l4.7-14.7l-3.5-0.9v-2h8.9v1.2
		c0,0.8-0.3,1.2-1.2,1.2h-1c-2.5,7.3-6.4,18.3-9.5,25.3c-1.6,3.6-3.4,4.8-5.4,4.8c-2.2,0-3.4-1.6-3.4-3.3c0-1.3,0.8-2.5,1.3-2.9
		l5,1.2l2.6-5.9c-1.9-0.1-3.1-1-4-3.2l-6.4-15.8l-2.3-0.5V282.6z"/>
	<path d="M117.1,282.6h12.5v1.2c0,0.8-0.4,1.2-1.2,1.2h-2.7l3.6,9.1c0.7,1.7,1.5,4,2,6.1l4.7-14.7l-3.5-0.9v-2h8.9v1.2
		c0,0.8-0.3,1.2-1.2,1.2h-1c-2.5,7.3-6.4,18.3-9.5,25.3c-1.6,3.6-3.4,4.8-5.4,4.8c-2.2,0-3.4-1.6-3.4-3.3c0-1.3,0.8-2.5,1.3-2.9
		l5,1.2l2.6-5.9c-1.9-0.1-3.1-1-4-3.2l-6.4-15.8l-2.3-0.5L117.1,282.6z"/>
	<path d="M152.8,305.5c-7,0-10.5-5.1-10.5-11.6c0-6.9,4.6-12.1,11.4-12.1c7,0,10.6,5.1,10.6,11.6
		C164.3,300.4,159.4,305.5,152.8,305.5L152.8,305.5z M158.2,293.9c0-4.8-1.4-9.6-5.3-9.6c-3.4,0-4.7,3.7-4.7,8.9
		c0,5,1.5,9.7,5.2,9.7C157,302.9,158.2,299.1,158.2,293.9z"/>
	<path d="M184.5,300.7c-0.4,0.9-1.5,2.3-3.1,3.3s-3,1.2-4.5,1.2c-2.4,0-4.4-1.1-5.4-2.4c-1.1-1.4-1.6-3.1-1.6-6.4v-11.1h-3V284
		c0-0.8,0.4-1.3,1.3-1.3l7.4-0.5v13.7c0,1.5,0.1,3.2,0.7,4.4c0.7,1.3,1.9,1.9,3.1,1.9c1.9,0,3.4-1.8,4.1-3.7c0.4-1.2,0.5-3,0.5-4.7
		v-8.5h-3V284c0-0.6,0.3-1.3,1.3-1.3l7.4-0.5V302h2.9c0,0.3,0.1,0.8,0.1,1c0,1.2-1,1.4-1.6,1.5l-5.4,0.5L184.5,300.7z"/>
	<path d="M208.5,302v-28.1l-3-0.4v-0.7c0-1,0.5-1.5,1.4-1.6l7.4-0.4v31.5h2.8v1.1c0,0.8-0.3,1.2-1.3,1.2h-10.4v-1.8L208.5,302z"/>
	<path d="M223,302v-16.8h-3.3V284c0-0.8,0.4-1.2,1.2-1.2l7.8-0.5v20.1h3.2v1.1c0,0.8-0.3,1.2-1.3,1.2h-11v-1.8L223,302z
		 M225.2,278.2c-1.8,0-3.3-1.5-3.3-3.1c0-1.7,1.6-3.2,3.5-3.2c1.8,0,3.3,1.5,3.3,3.2S227.2,278.2,225.2,278.2z"/>
	<path d="M233,282.6h12.4v1.2c0,0.9-0.4,1.2-1.2,1.2h-2.7l3.7,10.2c0.7,1.9,1.2,4,1.7,5.6l4.8-15.3l-3.4-0.9v-2h8.9v1.2
		c0,0.8-0.3,1.3-1.2,1.3h-1.1c-1.3,3.7-5.7,16.1-6.7,18.1c-0.7,1.4-1.9,2-3.6,2c-0.6,0-1.2-0.1-2-0.2l-7.2-19.7l-2.3-0.5L233,282.6z
		"/>
	<path d="M263.7,292.8c0.1,5.6,3.4,8.8,7.6,8.8c1.2,0,2.7-0.2,5.2-1.4c0.2,0.3,0.5,0.7,0.5,1.1c0,0.6-0.3,1-0.9,1.4
		c-0.6,0.5-3.2,2.7-7.7,2.7c-6.2,0-10.4-4.6-10.4-11.2c0-6.5,4.5-12.3,11.3-12.3c4.1,0,6.8,2,7.6,5.3c0.3,1.1,0.4,2.3,0.4,4.1v1.5
		H263.7z M271.7,290.6c0-1.6-0.2-3.1-0.9-4.2c-0.6-1.1-1.7-1.7-2.9-1.7c-2.9,0-4.1,3.2-4.2,5.9L271.7,290.6L271.7,290.6z"/>
	<path d="M293.7,302v-16.8h-3.3V284c0-0.8,0.4-1.2,1.2-1.2l7.8-0.5v20.1h3.2v1.1c0,0.8-0.3,1.2-1.3,1.2h-11v-1.8L293.7,302z
		 M296,278.2c-1.8,0-3.3-1.5-3.3-3.1c0-1.7,1.6-3.2,3.5-3.2c1.8,0,3.3,1.5,3.3,3.2S297.9,278.2,296,278.2z"/>
	<path d="M322.5,302v-10.6c0-1.1-0.1-2.8-0.5-3.8c-0.5-1.6-1.7-2.8-3.4-2.8c-1.2,0-2.4,0.7-3.4,2.1c-1.2,1.7-1.3,3.8-1.3,6.4v9.1
		h2.7v1.1c0,0.8-0.3,1.2-1.3,1.2h-10.2v-1.8l3.1-0.8v-16.8h-3V284c0-0.8,0.4-1.3,1.3-1.3l6.4-0.5l0.6,3.8c1.5-2.6,4.3-4.2,7.3-4.2
		c2.4,0,4.6,0.8,5.9,2.7c1.1,1.5,1.5,3.2,1.5,6.2v11.7h2.8v1.1c0,0.8-0.3,1.2-1.3,1.2h-10.2v-1.8L322.5,302z"/>
	<path d="M347.1,302v-16.8h-3.3V284c0-0.8,0.4-1.2,1.2-1.2l7.8-0.5v20.1h3.2v1.1c0,0.8-0.3,1.2-1.3,1.2h-11v-1.8L347.1,302z
		 M349.4,278.2c-1.8,0-3.3-1.5-3.3-3.1c0-1.7,1.6-3.2,3.5-3.2c1.8,0,3.3,1.5,3.3,3.2S351.3,278.2,349.4,278.2z"/>
	<path d="M375.9,302v-10.6c0-1.1-0.1-2.8-0.5-3.8c-0.5-1.6-1.7-2.8-3.4-2.8c-1.2,0-2.4,0.7-3.4,2.1c-1.2,1.7-1.3,3.8-1.3,6.4v9.1
		h2.7v1.1c0,0.8-0.3,1.2-1.3,1.2h-10.2v-1.8l3.1-0.8v-16.8h-3V284c0-0.8,0.4-1.3,1.3-1.3l6.4-0.5l0.6,3.8c1.5-2.6,4.3-4.2,7.3-4.2
		c2.4,0,4.6,0.8,5.9,2.7c1.1,1.5,1.5,3.2,1.5,6.2v11.7h2.8v1.1c0,0.8-0.3,1.2-1.3,1.2h-10.2v-1.8L375.9,302z"/>
	<path d="M392.7,292.8c0.1,5.6,3.4,8.8,7.6,8.8c1.2,0,2.7-0.2,5.2-1.4c0.2,0.3,0.5,0.7,0.5,1.1c0,0.6-0.3,1-0.9,1.4
		c-0.6,0.5-3.2,2.7-7.7,2.7c-6.2,0-10.4-4.6-10.4-11.2c0-6.5,4.5-12.3,11.3-12.3c4.1,0,6.8,2,7.6,5.3c0.3,1.1,0.4,2.3,0.4,4.1v1.5
		H392.7z M400.7,290.6c0-1.6-0.2-3.1-0.9-4.2c-0.6-1.1-1.7-1.7-2.9-1.7c-2.9,0-4.1,3.2-4.2,5.9L400.7,290.6L400.7,290.6z"/>
	<path d="M412.6,302v-16.8h-3V284c0-0.8,0.4-1.3,1.3-1.3l6.2-0.5l0.7,4.5c1.3-3,3.7-5,6.2-5c2.9,0,4.2,2.1,4.2,3.9
		c0,2.1-1.5,3.3-3.5,3.3h-1l-2-3.8c-1.1,0.6-2.2,2.2-2.7,3.7c-0.5,1.4-0.7,2.9-0.7,6.1v7.4h4.4v1c0,0.8-0.4,1.3-1.3,1.3h-11.9v-1.8
		L412.6,302z"/>
	<path d="M434.9,292.8c0.1,5.6,3.4,8.8,7.6,8.8c1.2,0,2.7-0.2,5.2-1.4c0.2,0.3,0.5,0.7,0.5,1.1c0,0.6-0.3,1-0.9,1.4
		c-0.6,0.5-3.2,2.7-7.7,2.7c-6.2,0-10.4-4.6-10.4-11.2c0-6.5,4.5-12.3,11.3-12.3c4.1,0,6.8,2,7.6,5.3c0.3,1.1,0.4,2.3,0.4,4.1v1.5
		H434.9z M443,290.6c0-1.6-0.2-3.1-0.9-4.2c-0.6-1.1-1.7-1.7-2.9-1.7c-2.9,0-4.1,3.2-4.2,5.9L443,290.6L443,290.6z"/>
	<path d="M455.9,301.9c0.9,0.6,2.6,1.1,3.9,1.1c2.2,0,3.6-1,3.6-2.7c0-1.2-0.8-2.5-5-4.6c-3.5-1.8-6-3.7-6-7.2
		c0-4.4,4.1-6.6,8.6-6.6c2.3,0,5.3,0.8,6.3,1.1v5.8c-0.3,0.1-0.8,0.3-1.1,0.3c-0.7,0-1.1-0.3-1.3-1l-0.8-2.8c-0.7-0.4-2.6-1-3.9-1
		c-1.4,0-2.9,0.6-2.9,2.3c0,2,2.1,3.1,5.1,4.7c3.7,2,6,3.7,6,7.2c0,3.9-3.6,6.9-9.2,6.9c-2.5,0-5.8-0.9-7.1-1.4v-6.8h2.3
		L455.9,301.9z"/>
	<path d="M470.8,282.8l3.2-0.8l2-5.4c0.4-0.1,0.9-0.1,1.3-0.1c1.4,0,2,0.8,2,2.1v4.1h6.7v1c0,1.1-0.4,1.5-1.4,1.5h-5v12.7
		c0,3.3,1.4,3.9,2.9,3.9c1.2,0,2.4-0.4,3.7-1c0.3,0.4,0.5,0.7,0.5,1c0,0.5-0.5,1.2-1.3,1.8c-1.3,1-3.4,1.9-5.5,1.9
		c-1.6,0-3.9-0.4-5.1-2.7c-0.6-1.1-0.9-2.6-0.9-5v-12.5h-3L470.8,282.8z"/>
	<path d="M491.6,302v-16.8h-3.3V284c0-0.8,0.4-1.2,1.2-1.2l7.8-0.5v20.1h3.2v1.1c0,0.8-0.3,1.2-1.3,1.2h-11v-1.8L491.6,302z
		 M493.8,278.2c-1.8,0-3.3-1.5-3.3-3.1c0-1.7,1.6-3.2,3.5-3.2c1.8,0,3.3,1.5,3.3,3.2S495.8,278.2,493.8,278.2z"/>
	<path d="M520.3,302v-10.6c0-1.1-0.1-2.8-0.5-3.8c-0.5-1.6-1.7-2.8-3.4-2.8c-1.2,0-2.4,0.7-3.4,2.1c-1.2,1.7-1.3,3.8-1.3,6.4v9.1
		h2.7v1.1c0,0.8-0.3,1.2-1.3,1.2H503v-1.8l3.1-0.8v-16.8h-3V284c0-0.8,0.4-1.3,1.3-1.3l6.4-0.5l0.6,3.8c1.5-2.6,4.3-4.2,7.3-4.2
		c2.4,0,4.6,0.8,5.9,2.7c1.1,1.5,1.5,3.2,1.5,6.2v11.7h2.8v1.1c0,0.8-0.3,1.2-1.3,1.2h-10.2v-1.8L520.3,302z"/>
	<path d="M548.3,284.3c1.6,1.4,2.4,3.4,2.4,5.2c0,4.6-3.6,8-9.8,8c-0.5,0-1.3,0-1.8-0.1c-1,0.7-1.6,1.8-1.7,3.1
		c0.9,0.1,3.2,0.2,7.1,0.2c6,0,7.9,2.7,7.9,5.7c0,4.2-4.6,8.6-12.4,8.6c-5.9,0-9.2-2.3-9.2-5.7c0-2.3,2-4,3.9-4.7
		c-0.4-0.3-1.2-1.1-1.2-2.6s1-3.4,2.8-5.5c-2.8-1.2-4.6-3.5-4.6-6.7c0-4.5,3.9-8.1,9.9-8.1c1.4,0,3.1,0.4,4.4,1c0-0.2,0-0.4,0-0.6
		c0-2.2,1.2-4.1,3.5-4.1c1.8,0,2.8,1.5,3.3,3.2L548.3,284.3z M541.1,305.5h-1.4c-2.2,0-4.1,0.9-4.1,3.2c0,1.9,1.9,4,6.2,4
		c3.8,0,6.2-1.8,6.2-4C548,307.1,546.9,305.5,541.1,305.5z M541.5,295.3c2.3,0,3.5-1.7,3.5-5c0-3.4-1.4-6.3-4.3-6.3
		c-2.4,0-3.4,2.1-3.4,5C537.4,293,539.2,295.3,541.5,295.3L541.5,295.3z"/>
	<path d="M564.2,282.8l3.2-0.8l2-5.4c0.4-0.1,0.9-0.1,1.3-0.1c1.4,0,2,0.8,2,2.1v4.1h6.7v1c0,1.1-0.4,1.5-1.4,1.5h-5v12.7
		c0,3.3,1.4,3.9,2.9,3.9c1.2,0,2.4-0.4,3.7-1c0.3,0.4,0.5,0.7,0.5,1c0,0.5-0.5,1.2-1.3,1.8c-1.3,1-3.4,1.9-5.5,1.9
		c-1.6,0-3.9-0.4-5.1-2.7c-0.6-1.1-0.9-2.6-0.9-5v-12.5h-3L564.2,282.8z"/>
	<path d="M585,302v-16.8h-3.3V284c0-0.8,0.4-1.2,1.2-1.2l7.8-0.5v20.1h3.2v1.1c0,0.8-0.3,1.2-1.3,1.2h-11v-1.8L585,302z
		 M587.2,278.2c-1.8,0-3.3-1.5-3.3-3.1c0-1.7,1.6-3.2,3.5-3.2c1.8,0,3.3,1.5,3.3,3.2S589.2,278.2,587.2,278.2z"/>
	<path d="M596.4,284c0-0.8,0.4-1.3,1.3-1.3l6.4-0.5l0.6,3.8c1.5-2.7,4.4-4.2,7.2-4.2c2.1,0,3.9,0.8,5.2,2.2c0.6,0.7,1.1,1.5,1.4,2.5
		c1.6-2.9,4.6-4.7,7.6-4.7c2.7,0,4.7,1.1,5.9,2.8c1,1.3,1.5,3,1.5,6v11.8h2.8v1.1c0,0.8-0.3,1.2-1.3,1.2h-10.2v-1.8l2.9-0.8v-10.7
		c0-1.4-0.2-3.1-0.6-4.2c-0.5-1.3-1.7-2.4-3.2-2.4c-1.3,0-2.5,0.8-3.4,2.1c-0.9,1.4-1.3,3.4-1.3,6v9.5h2.7v1.1
		c0,0.8-0.3,1.2-1.3,1.2h-10.1v-1.8l2.9-0.8v-10.7c0-1.1-0.1-2.8-0.5-3.9c-0.5-1.6-1.6-2.8-3.2-2.8c-1.1,0-2.1,0.5-3.2,1.8
		c-1.2,1.6-1.5,3.7-1.5,6.7v9.1h2.7v1.1c0,0.8-0.3,1.2-1.3,1.2h-10.2v-1.8l3.1-0.8v-16.8h-3L596.4,284z"/>
	<path d="M644.6,292.8c0.1,5.6,3.4,8.8,7.6,8.8c1.2,0,2.7-0.2,5.2-1.4c0.2,0.3,0.5,0.7,0.5,1.1c0,0.6-0.3,1-0.9,1.4
		c-0.6,0.5-3.2,2.7-7.7,2.7c-6.2,0-10.4-4.6-10.4-11.2c0-6.5,4.5-12.3,11.3-12.3c4.1,0,6.8,2,7.6,5.3c0.3,1.1,0.4,2.3,0.4,4.1v1.5
		H644.6z M652.7,290.6c0-1.6-0.2-3.1-0.9-4.2c-0.6-1.1-1.7-1.7-2.9-1.7c-2.9,0-4.1,3.2-4.2,5.9L652.7,290.6L652.7,290.6z"/>
	<path d="M665.7,301.9c0.9,0.6,2.6,1.1,3.9,1.1c2.2,0,3.6-1,3.6-2.7c0-1.2-0.8-2.5-5-4.6c-3.5-1.8-6-3.7-6-7.2
		c0-4.4,4.1-6.6,8.6-6.6c2.3,0,5.3,0.8,6.3,1.1v5.8c-0.3,0.1-0.8,0.3-1.1,0.3c-0.7,0-1.1-0.3-1.3-1l-0.8-2.8c-0.7-0.4-2.6-1-3.9-1
		c-1.4,0-2.9,0.6-2.9,2.3c0,2,2.1,3.1,5.1,4.7c3.7,2,6,3.7,6,7.2c0,3.9-3.6,6.9-9.2,6.9c-2.5,0-5.8-0.9-7.1-1.4v-6.8h2.3
		L665.7,301.9z"/>
	<path d="M686.3,305.3c-1.9,0-3.6-1.6-3.6-3.5s1.6-3.5,3.6-3.5c1.9,0,3.6,1.7,3.6,3.5C689.9,303.7,688.2,305.3,686.3,305.3z"/>
</g>
</svg>
